%YAML 1.1
%TAG !u! tag:unity3d.com,2011:
--- !u!1045 &1
EditorBuildSettings:
  m_ObjectHideFlags: 0
  serializedVersion: 2
  m_Scenes:
  - enabled: 1
    path: Assets/Mosaic/Scenes/Startup.unity
    guid: d4cdbd263f9e60147a8552eed362eb62
  - enabled: 1
    path: Assets/Mosaic/Scenes/Menu.unity
    guid: 9fc0d4010bbf28b4594072e72b8655ab
  - enabled: 1
    path: Assets/Mosaic/Scenes/Game.unity
    guid: 35ed8033c3894c74cbde175ca5ac80cc
  m_configObjects:
    UnityEditor.XR.ARCore.ARCoreSettings: {fileID: 11400000, guid: faccac5b0aba5a54a91564517b86490b,
      type: 2}
    com.unity.xr.management.loader_settings: {fileID: 11400000, guid: a6b9daf2f6620aa439c899ef9d1e8861,
      type: 2}
